{
  "images" : [
    {
      "idiom" : "universal",
      "filename" : "ic_action_time_30x30.png",
      "scale" : "1x"
    },
    {
      "idiom" : "universal",
      "filename" : "ic_action_time_50x50.png",
      "scale" : "2x"
    },
    {
      "idiom" : "universal",
      "filename" : "ic_action_time_80x80.png",
      "scale" : "3x"
    }
  ],
  "info" : {
    "version" : 1,
    "author" : "xcode"
  }
}